<svg width="85" height="80" viewBox="0 0 85 80" fill="none" xmlns="http://www.w3.org/2000/svg">
<path fill-rule="evenodd" clip-rule="evenodd" d="M42.6389 0.701782C66.0272 0.701782 84.9943 18.292 84.9943 39.9815C84.9943 61.6711 66.0272 79.2613 42.6389 79.2613C19.2507 79.2613 0.283569 61.6711 0.283569 39.9815C0.283569 18.292 19.2507 0.701782 42.6389 0.701782Z" fill="#F7E123"/>
<path fill-rule="evenodd" clip-rule="evenodd" d="M42.6406 2.35895V2.36516H42.6389H42.6356V2.35895C31.2459 2.35931 20.9486 6.62809 13.5093 13.5273C6.17621 20.3279 1.6394 29.6837 1.6391 39.9801H1.64448V39.9816V39.9839H1.6391C1.6397 50.2798 6.17621 59.6348 13.5088 66.4355C20.9485 73.3355 31.2465 77.6041 42.6372 77.6043V77.5979H42.6389H42.6423V77.6043C54.032 77.6037 64.3292 73.3351 71.7685 66.4359C79.1018 59.6353 83.6388 50.2794 83.6388 39.983H83.6337V39.9816V39.9793H83.6388C83.6382 29.6836 79.1018 20.3283 71.7691 13.5277C64.3294 6.62809 54.0312 2.35895 42.6406 2.35895Z" fill="#353980"/>
<path fill-rule="evenodd" clip-rule="evenodd" d="M42.6402 12.5787V12.5834H42.639H42.6366V12.5787C34.6974 12.5792 27.5198 15.6883 22.3342 20.7133C17.2227 25.6668 14.0602 32.4812 14.0601 39.9805H14.0637V39.9816V39.9832H14.0601C14.0604 47.4822 17.2227 54.2962 22.3338 59.2495C27.5196 64.2749 34.6979 67.3842 42.6378 67.3844V67.3797H42.639H42.6413V67.3844C50.5805 67.3839 57.7582 64.2749 62.9438 59.2498C68.0552 54.2963 71.2178 47.4819 71.2178 39.9826H71.2142V39.9816V39.9799H71.2178C71.2175 32.4809 68.0552 25.6669 62.9441 20.7138C57.7582 15.6883 50.5799 12.5789 42.6402 12.5787Z" fill="#F7E123"/>
<path fill-rule="evenodd" clip-rule="evenodd" d="M43.1698 14.663H42.6403H42.6388H41.7541C38.2971 14.769 35.004 15.4949 31.9908 16.7277C31.2991 17.0107 30.6016 17.3324 29.9008 17.69C29.2145 18.0402 28.553 18.4136 27.9191 18.8071C26.2803 19.8241 24.7619 21.0097 23.3905 22.3388L23.3888 22.3361V22.3404C22.711 22.9971 22.0777 23.6783 21.4929 24.3805C20.8995 25.0926 20.3472 25.8325 19.8397 26.596C17.3766 30.3015 15.8987 34.6492 15.7646 39.2879V39.9803V39.9813V39.9834V40.6684C15.8225 42.6853 16.1343 44.6494 16.6711 46.5291C16.8689 47.222 17.0936 47.8948 17.3431 48.5448C18.6548 51.9624 20.7362 55.0533 23.3899 57.6244L23.4131 57.6526C24.0856 58.3024 24.7952 58.9196 25.538 59.4993C26.2599 60.0628 27.0499 60.6119 27.9044 61.1432C32.0077 63.6945 36.8812 65.2078 42.129 65.3002H42.6378H42.6388H42.6415H43.4875C46.958 65.1983 50.2632 64.4726 53.2869 63.2354C53.9786 62.9524 54.6762 62.6307 55.3771 62.2731C56.0633 61.9229 56.7246 61.5497 57.3588 61.1561C58.9976 60.1391 60.5159 58.9533 61.8873 57.6244L61.889 57.6271V57.6227C62.5668 56.966 63.2 56.2849 63.7848 55.5827C64.3783 54.8705 64.9305 54.1307 65.4382 53.3672C67.8986 49.6658 69.3763 45.3227 69.5132 40.6896V39.9828V39.9813V39.9799V39.2632C69.4531 37.2568 69.1408 35.3042 68.6068 33.434C68.409 32.7412 68.1843 32.0683 67.9347 31.4183C66.6231 28.0008 64.5417 24.9099 61.888 22.3388L61.8614 22.3061L61.8594 22.304C61.1884 21.6565 60.4801 21.0417 59.7397 20.4639C59.0179 19.9004 58.2278 19.3512 57.3733 18.82C53.2753 16.2719 48.4098 14.7586 43.1698 14.663Z" fill="#BBBDBF"/>
<path fill-rule="evenodd" clip-rule="evenodd" d="M43.072 16.0031L43.0723 20.3256C43.8552 20.3121 44.6365 20.2659 45.4097 20.1869C44.7033 18.5698 43.9187 17.1559 43.072 16.0031ZM43.0723 21.36L43.0729 29.8039C44.8001 29.8008 46.5148 29.7341 48.1961 29.6052C47.6107 26.5101 46.8031 23.6421 45.8232 21.1783C44.9149 21.2829 43.9942 21.3438 43.0723 21.36ZM43.0729 30.8407L43.0734 39.5349H49.24C49.2303 39.1473 49.2173 38.7604 49.2005 38.374C49.0853 35.721 48.8038 33.1092 48.3801 30.6273C46.6388 30.7648 44.8622 30.8368 43.0729 30.8407ZM43.0734 40.5746L43.0739 49.6167C44.9316 49.6209 46.7757 49.698 48.5807 49.8463C49.0697 46.8284 49.2823 43.6911 49.2575 40.5746H43.0734ZM43.0739 50.653L43.0744 59.1007C44.0095 59.1177 44.9435 59.1801 45.8647 59.288C47.0179 56.7105 47.8508 53.8573 48.4031 50.8691C46.6558 50.7294 44.8717 50.6564 43.0739 50.653ZM43.0744 60.136L43.0747 64.095C43.9514 62.9243 44.7253 61.6435 45.4014 60.2747C44.6317 60.1958 43.8537 60.1499 43.0744 60.136ZM42.2277 64.0944L42.2273 60.1337C41.4459 60.1432 40.6658 60.185 39.8935 60.2593C40.5714 61.6337 41.3476 62.9195 42.2277 64.0944ZM42.2273 59.0978L42.2268 50.6564C40.4553 50.6747 38.6747 50.7607 36.9066 50.9163C37.4579 53.8789 38.2855 56.708 39.4282 59.2664C40.3516 59.1645 41.2883 59.1081 42.2273 59.0978ZM42.2268 49.6194L42.2263 40.5746H36.042C36.0174 43.7064 36.2324 46.8593 36.7273 49.8907C38.5539 49.7271 40.3949 49.6373 42.2268 49.6194ZM42.2263 39.5349L42.2258 30.838C40.4608 30.8207 38.6871 30.7369 36.9262 30.5849C36.4984 33.0793 36.2138 35.705 36.0982 38.3728C36.0813 38.7595 36.0689 39.1467 36.0592 39.5349H42.2263ZM42.2258 29.8008L42.2253 21.3625C41.301 21.3519 40.379 21.2966 39.4699 21.1974C38.4978 23.6448 37.6955 26.4903 37.1119 29.5598C38.8119 29.7037 40.5232 29.7835 42.2258 29.8008ZM42.2253 20.3277L42.225 16.011C41.3772 17.1652 40.5918 18.581 39.8852 20.1998C40.6593 20.2748 41.4419 20.3179 42.2253 20.3277ZM34.6379 60.2626C35.6476 59.9418 36.7037 59.687 37.7858 59.4991C38.028 59.4571 38.2717 59.4184 38.5168 59.3828C37.4033 56.7958 36.5941 53.9579 36.0529 50.9967C34.9848 51.1047 33.9227 51.2388 32.8719 51.3987C31.3248 51.6345 29.8037 51.9264 28.3247 52.2768C28.5015 52.629 28.6864 52.9777 28.8799 53.3223C30.3318 55.9058 32.2523 58.2656 34.6379 60.2626ZM37.9055 60.5267C37.1216 60.6629 36.3553 60.8336 35.6139 61.0392C37.2784 62.2983 39.1479 63.3887 41.2206 64.2705C40.3696 63.0643 39.6182 61.7555 38.9609 60.3655C38.6065 60.4121 38.2544 60.466 37.9055 60.5267ZM46.7735 59.4095C48.1024 59.6105 49.3963 59.9085 50.6202 60.3031C53.0311 58.2962 54.9692 55.9198 56.4322 53.3164C56.641 52.9448 56.8402 52.5681 57.0299 52.1876C54.601 51.6149 51.9799 51.1966 49.2577 50.9427C48.715 53.9334 47.8991 56.7995 46.7735 59.4095ZM49.6475 61.0731C48.5825 60.7718 47.4697 60.5429 46.3318 60.3863C45.6767 61.769 44.9289 63.0709 44.0818 64.2713C46.1375 63.3972 47.9932 62.318 49.6475 61.0731ZM27.8718 51.3278C29.4655 50.9402 31.1042 50.6208 32.7688 50.3674C33.7958 50.211 34.8339 50.0795 35.8777 49.9725C35.385 46.908 35.1701 43.7298 35.1941 40.5746H25.5111C25.5528 44.2691 26.3418 47.9468 27.8718 51.3278ZM49.4315 49.9215C52.2536 50.1898 54.9691 50.6327 57.4782 51.2398C58.9832 47.8832 59.759 44.2371 59.8006 40.5746H50.1055C50.1297 43.7121 49.9179 46.8728 49.4315 49.9215ZM25.5195 39.5349H35.2108C35.2205 39.1293 35.2336 38.7242 35.2511 38.32C35.367 35.6487 35.6505 33.0156 36.0764 30.5065C34.9655 30.3968 33.861 30.2591 32.7688 30.0934C31.1077 29.8414 29.4727 29.523 27.8818 29.1375C26.4 32.432 25.6142 35.981 25.5195 39.5349ZM50.0887 39.5349H59.7928C59.6993 36.0122 58.9267 32.4933 57.4692 29.2234C54.9031 29.8418 52.1214 30.2892 49.2308 30.5548C49.6521 33.0498 49.9322 35.6663 50.0475 38.3212C50.0651 38.7251 50.0788 39.1297 50.0887 39.5349ZM28.332 28.1875C29.8086 28.5362 31.3271 28.8275 32.8719 29.062C33.9902 29.2317 35.1215 29.371 36.2592 29.4819C36.834 26.4213 37.6227 23.5687 38.5796 21.0854C38.045 21.0093 37.5159 20.918 36.9954 20.8105C36.1514 20.6362 35.329 20.4206 34.5374 20.1648C32.0895 22.2962 30.142 24.7882 28.6918 27.4915C28.5681 27.7221 28.4486 27.954 28.332 28.1875ZM49.0495 29.5336C51.8438 29.2829 54.5347 28.8601 57.0236 28.2758C56.8938 28.0132 56.7594 27.7527 56.6205 27.4938C55.1604 24.7726 53.1967 22.2652 50.7248 20.1243C49.4514 20.5423 48.1002 20.8548 46.7117 21.0615C47.6773 23.5643 48.472 26.4438 49.0495 29.5336ZM35.4802 19.3818C36.0201 19.5354 36.5725 19.6708 37.1349 19.787C37.7392 19.912 38.3549 20.0149 38.9778 20.0964C39.6452 18.5095 40.3851 17.097 41.183 15.906C39.0667 16.8739 37.166 18.0462 35.4802 19.3818ZM46.3159 20.0788C47.5091 19.9155 48.6752 19.672 49.7873 19.3494C48.1099 18.0265 46.2204 16.8644 44.1182 15.9041C44.9131 17.0912 45.6504 18.4981 46.3159 20.0788ZM43.1698 14.663H41.7541C39.584 14.7283 36.1437 17.4655 34.3685 18.9609C34.1518 18.8863 33.9373 18.8089 33.7261 18.7278C32.6615 18.3191 31.6704 17.8287 30.7827 17.2582L30.7824 17.258C30.4893 17.3952 30.1952 17.5397 29.9008 17.69L29.7848 17.7495C30.0289 17.9238 30.325 18.1358 30.3874 18.176C31.3231 18.7775 32.362 19.292 33.4737 19.7188L33.497 19.7276C31.2107 21.8269 29.3691 24.2422 27.9711 26.8482C27.7856 27.1942 27.6083 27.5431 27.4384 27.8955C27.0751 27.8028 26.714 27.7078 26.3566 27.608C24.3166 27.0382 22.3755 26.3512 20.579 25.5436C20.376 25.8181 20.1781 26.0961 19.9868 26.3774L20.1363 26.4481L20.1632 26.4604C22.0362 27.311 24.0541 28.0292 26.1672 28.6194C26.4439 28.6967 26.7227 28.7713 27.0026 28.8443C25.5325 32.2132 24.7541 35.8331 24.662 39.4601L15.7646 39.4705V39.9813V40.5101L24.6542 40.4997C24.6949 44.2677 25.4762 48.016 26.9929 51.4725C26.7162 51.5448 26.4407 51.6195 26.1672 51.6962C24.0584 52.287 22.0447 53.0054 20.1749 53.8562C20.3714 54.1371 20.5736 54.4141 20.7814 54.6871C22.5215 53.9159 24.3933 53.2576 26.3566 52.7076C26.7116 52.6082 27.0702 52.5122 27.4309 52.4198C27.6626 52.897 27.9084 53.3682 28.1691 53.8321C29.5614 56.3096 31.3661 58.5875 33.5793 60.5516C32.6889 60.8881 31.8439 61.2808 31.0605 61.7285C30.7138 61.9265 30.381 62.1344 30.0641 62.3511L30.0649 62.3531C30.4082 62.5255 30.7555 62.6915 31.1072 62.8499C31.2105 62.7875 31.3142 62.7268 31.4193 62.6667C32.3457 62.1373 33.367 61.6874 34.4541 61.3183C34.4752 61.3112 37.7011 63.9694 41.1524 65.2663C41.4764 65.2829 41.8019 65.2943 42.1292 65.3002H43.4875C45.7584 65.2347 48.8943 62.8555 50.7633 61.3501C51.9648 61.763 53.0885 62.275 54.0985 62.8863C54.443 62.7312 54.7889 62.5671 55.1357 62.3941L55.14 62.385C54.1007 61.6769 52.9254 61.0806 51.6578 60.5963C53.8967 58.6206 55.7195 56.3248 57.1236 53.8263C57.3995 53.3352 57.6594 52.8361 57.9031 52.33C60.3493 52.9573 62.5802 53.746 64.4975 54.6869C64.715 54.4006 64.9263 54.1105 65.131 53.8167C63.2056 52.9099 60.6145 51.9817 58.3361 51.3841C59.8285 47.9522 60.5975 44.2357 60.6381 40.4997H69.5132V39.9813V39.4601H60.6308C60.54 35.8639 59.7739 32.2748 58.3277 28.9306C60.8598 28.2692 63.1618 27.4362 65.1247 26.4421L65.2861 26.3704C65.0945 26.089 64.897 25.8115 64.6941 25.5378C62.7318 26.5192 60.4294 27.3383 57.8972 27.9847C57.7147 27.6028 57.5226 27.2248 57.3217 26.8505C55.9131 24.2247 54.0545 21.7927 51.7437 19.6822C52.9788 19.2036 54.1244 18.6178 55.14 17.9238L55.4463 17.7277C55.1069 17.553 54.7634 17.3854 54.4156 17.2245C53.3566 17.9061 52.1618 18.4725 50.8761 18.9233C48.8967 17.2642 46.6148 15.8303 44.0298 14.6912C43.7442 14.6775 43.4578 14.6682 43.1698 14.663Z" fill="#4782A5"/>
<path fill-rule="evenodd" clip-rule="evenodd" d="M56.7756 44.249C56.764 44.3346 56.7513 44.4197 56.7385 44.5051L56.738 44.5049C56.6684 44.969 56.59 45.397 56.5031 45.7872H56.4999C56.0182 47.9474 55.1609 49.9211 53.9295 51.705L53.9303 51.7058L53.9288 51.7081L53.9189 51.7203C53.591 52.194 53.2457 52.6394 52.8836 53.0546C52.5275 53.463 52.1463 53.8491 51.741 54.211C49.6984 56.0337 47.2343 57.0066 44.3271 57.0066H44.3235V57.0024C43.0046 57.002 41.7645 56.7677 40.6134 56.341C40.4009 56.2622 40.2157 56.1882 40.0587 56.12C39.1145 55.7089 38.2365 55.1681 37.4308 54.5228L37.4242 54.5187L37.4227 54.5174L37.423 54.5168C37.3024 54.4202 37.1556 54.295 36.9854 54.1455C36.8141 53.9949 36.671 53.8643 36.5562 53.7537C36.4057 53.6088 36.2586 53.4601 36.1138 53.3067V55.9295V56.9692H35.2634H33.5655L32.7151 56.9694V55.9295V46.8907V45.8511H33.5655H35.2632H35.2634H36.1138V46.6474C37.1214 49.0174 38.6361 50.7148 40.3621 51.7174C41.9608 52.6463 43.7401 52.9844 45.466 52.7143C47.1882 52.4448 48.86 51.569 50.2476 50.0702C51.5993 48.6101 52.6871 46.5501 53.2988 43.8709C51.8331 43.9637 50.3241 44.2689 48.7867 44.5802C45.2978 45.287 41.6655 46.0228 37.6849 44.5373L37.0786 44.3111L37.0837 43.5382L37.0941 41.9752L37.0952 41.7879L37.1008 40.9378L37.1136 39.0222L37.1231 37.5964L38.2265 38.0434C41.6339 39.4239 45.0506 38.7398 48.4671 38.0559C49.856 37.7779 51.2455 37.5003 52.6565 37.3508C51.5942 34.5664 50.0634 32.7087 48.3436 31.6506C47.223 30.9615 46.0192 30.6061 44.811 30.551C43.5955 30.4957 42.3712 30.7436 41.2191 31.2595C39.0928 32.2114 37.2238 34.0753 36.1138 36.6268V37.4186H35.2634H35.2632H33.5655H32.7151V36.379V27.3402V26.3007L33.5655 26.3005H35.2634L36.1138 26.3007V27.3402V29.7898C36.4977 29.386 36.9171 29.0053 37.3793 28.6453L37.3827 28.6412L37.3859 28.6387L37.3866 28.6399C37.6695 28.4201 37.959 28.2149 38.2542 28.0261C38.573 27.8224 38.8761 27.6466 39.1628 27.4996H39.1662C40.752 26.6868 42.5034 26.2799 44.4195 26.2799H44.4218V26.2841C46.4005 26.2845 48.1742 26.8207 49.748 27.7747C49.9962 27.9251 50.2477 28.0924 50.501 28.2748C51.7597 29.181 52.8753 30.3593 53.8524 31.741C54.5762 32.7643 55.1759 33.7931 55.6489 34.8696C56.0347 35.7477 56.3373 36.6567 56.5538 37.6178C56.6314 37.6324 56.7011 37.6459 56.7622 37.6592C57.4437 37.8058 58.1853 38.0374 58.89 38.3038L59.4914 38.5312L59.4912 39.2948V40.8865V41.1938V41.9482V42.3746V43.8323V45.2888L58.3651 44.811L58.3362 44.7987C58.1889 44.7363 58.0453 44.6779 57.9063 44.6239C57.7594 44.5667 57.6264 44.517 57.5083 44.4754C57.2423 44.3816 56.9982 44.307 56.7756 44.249Z" fill="#1A2128"/>
<path fill-rule="evenodd" clip-rule="evenodd" d="M21.5422 41.1849C22.3689 41.4393 22.8465 40.8648 22.9093 40.1065C22.9283 40.0144 22.9385 39.9219 22.9388 39.832C22.9392 39.738 22.9298 39.6295 22.9122 39.51C22.8143 38.7331 22.3211 38.2618 21.5422 38.432V41.1849ZM21.9345 44.0348L21.9343 44.811H22.4898L22.4902 45.8506L22.4907 47.0354L22.4912 48.0751H21.6436H20.9065H20.1875H20.056H19.337H17.6394H16.7928L16.7923 47.0354L16.7918 45.8506L16.7915 44.811H17.3786L17.3665 38.4245H16.7632L16.776 37.3726L16.7923 36.0315L16.8049 35.0041H17.6394H19.337H20.056H20.1875H20.5132H20.9065V35.0093C21.8647 35.034 22.8234 35.1652 23.619 35.6403C24.6542 36.2583 25.3562 37.3595 25.3701 39.3185C25.3824 41.0532 24.984 42.2599 24.2013 43.0508C23.6221 43.6359 22.8647 43.9458 21.9345 44.0348Z" fill="#F7E123"/>
<path fill-rule="evenodd" clip-rule="evenodd" d="M31.5076 39.7842H30.3452H29.5057L29.4982 38.7527L29.4965 38.5123L29.3545 38.5146V44.7507H29.9704V45.7903V47.0354V48.0751H29.1199H28.3268H27.6078H27.4763H26.7574H26.6227H25.7722V48.0709H25.1218H24.2714V47.0354V45.7903V44.7507H24.8828V38.4849H24.2714V37.4452V36.0437V35.0082H25.1218H25.7722V35.0041H26.6227H27.4763H28.3268V35.0082H31.5076H32.3581V36.0437V38.7446V39.7842H31.5076Z" fill="#F7E123"/>
<path fill-rule="evenodd" clip-rule="evenodd" d="M55.2098 42.251C55.1982 42.3366 55.1855 42.4217 55.1727 42.5071L55.1722 42.5069C55.1026 42.971 55.0242 43.399 54.9373 43.7893H54.9341C54.4524 45.9494 53.5951 47.9231 52.3637 49.707L52.3645 49.7078L52.363 49.7101L52.3531 49.7224C52.0252 50.196 51.6799 50.6414 51.3178 51.0566C50.9616 51.465 50.5805 51.8512 50.1751 52.213C48.1325 54.0357 45.6684 55.0086 42.7613 55.0086H42.7577V55.0044C41.4388 55.004 40.1987 54.7697 39.0475 54.343C38.8351 54.2642 38.6499 54.1902 38.4929 54.122C37.5487 53.7109 36.6707 53.1701 35.865 52.5249L35.8584 52.5207L35.8569 52.5195L35.8572 52.5188C35.7366 52.4221 35.5898 52.297 35.4195 52.1475C35.2483 51.9969 35.1052 51.8664 34.9904 51.7557C34.8399 51.6108 34.6928 51.4621 34.548 51.3087V53.9315V54.9712H33.6976H31.9997L31.1493 54.9714V53.9315V44.8927V43.8531H31.9997H33.6974H33.6976H34.548V44.6495C35.5556 47.0194 37.0703 48.7168 38.7963 49.7194C40.395 50.6483 42.1743 50.9864 43.9002 50.7163C45.6224 50.4468 47.2942 49.571 48.6818 48.0722C50.0335 46.6121 51.1214 44.5522 51.733 41.873C50.2673 41.9657 48.7583 42.2709 47.2209 42.5822C43.732 43.289 40.0997 44.0248 36.1191 42.5394L35.5127 42.3131L35.5179 41.5403L35.5282 39.9772L35.5294 39.7899L35.535 38.9399L35.5478 37.0242L35.5573 35.5984L36.6607 36.0454C40.0681 37.4259 43.4848 36.7418 46.9013 36.0579C48.2902 35.7799 49.6797 35.5023 51.0907 35.3528C50.0283 32.5684 48.4976 30.7107 46.7778 29.6526C45.6572 28.9635 44.4533 28.6081 43.2452 28.553C42.0297 28.4977 40.8054 28.7456 39.6532 29.2615C37.527 30.2134 35.658 32.0773 34.548 34.6288V35.4206H33.6976H33.6974H31.9997H31.1493V34.381V25.3422V24.3027L31.9997 24.3025H33.6976L34.548 24.3027V25.3422V27.7918C34.9319 27.388 35.3513 27.0073 35.8135 26.6473L35.8169 26.6432L35.8201 26.6407L35.8208 26.6419C36.1036 26.4222 36.3931 26.2169 36.6884 26.0281C37.0072 25.8244 37.3103 25.6486 37.597 25.5016H37.6004C39.1862 24.6889 40.9376 24.2819 42.8536 24.2819H42.856V24.2861C44.8347 24.2865 46.6084 24.8228 48.1822 25.7767C48.4304 25.9271 48.6819 26.0945 48.9352 26.2768C50.1938 27.183 51.3095 28.3613 52.2866 29.743C53.0104 30.7663 53.6101 31.7951 54.0831 32.8716C54.4689 33.7497 54.7715 34.6588 54.988 35.6198C55.0655 35.6344 55.1353 35.6479 55.1963 35.6612C55.8779 35.8078 56.6195 36.0394 57.3242 36.3058L57.9256 36.5333L57.9254 37.2968V38.8885V39.1958V39.9502V40.3767V41.8343V43.2908L56.7993 42.813L56.7704 42.8008C56.6231 42.7384 56.4795 42.6799 56.3405 42.6259C56.1936 42.5687 56.0606 42.519 55.9425 42.4774C55.6765 42.3836 55.4324 42.309 55.2098 42.251Z" fill="#F6E125"/>
<path fill-rule="evenodd" clip-rule="evenodd" d="M67.6676 34.9532L68.5145 34.959V35.9886V37.4355V38.4751H67.9087L67.9691 43.3667V43.3709L67.9694 43.4164V43.4326C67.9682 43.584 67.9574 43.7316 67.938 43.871C67.921 43.9932 67.8929 44.1348 67.8558 44.2922C67.3768 46.3168 66.2074 47.7738 64.4599 48.1818L61.0124 48.1934L60.1668 48.1963L60.1653 47.1579L60.1624 45.0081L60.1611 43.9414L61.0328 43.9726L62.0851 44.0105L62.8716 44.0389L62.8997 44.7611L63.4703 44.7669L63.4662 44.1098L63.2412 44.0878L63.1749 44.0758C62.096 43.8664 61.3743 43.3449 60.8821 42.6242C60.4009 41.9195 60.1735 41.0676 60.0571 40.1521L60.0473 40.0735V39.9936L60.0502 38.4751H59.5028V37.4355V35.9886V34.9426L60.3599 34.9532L62.4974 34.98C62.6872 34.9825 62.8772 34.9831 63.0674 34.9837L63.0283 38.3824L62.6381 38.3734L62.6316 40.135C62.6291 40.8958 63.3645 41.5188 63.8066 41.5246L63.7918 38.4001L63.1332 38.3849L63.1723 34.9844C64.6693 34.9871 66.1704 34.9432 67.6676 34.9532Z" fill="#F7E123"/>
<path fill-rule="evenodd" clip-rule="evenodd" d="M26.4912 47.0354H25.1218V45.7903H25.7333V37.4452H25.1218V36.0438H26.4912V47.0354ZM26.6227 47.0354H27.4764V36.0438H26.6227V47.0354ZM31.5077 38.7446H30.3453L30.3361 37.4639L28.504 37.4918V45.7903H29.12V47.0354H27.6078V36.0438H31.5077V38.7446Z" fill="#1A2128"/>
<path fill-rule="evenodd" clip-rule="evenodd" d="M54.4816 41.0724C54.2421 44.062 53.3168 46.7225 51.7068 49.0499C49.5073 52.2279 46.5447 53.9689 42.7613 53.9689C40.2939 53.9689 38.1287 53.0962 36.33 51.6557C35.3263 50.8516 34.4488 49.8793 33.6975 48.7409V53.9315H31.9997V44.8927H33.6973H33.6975V44.8931C37.8548 55.1491 50.6394 54.2692 52.8111 40.8104C47.6603 40.7241 42.3289 43.7741 36.3649 41.5483L36.3753 39.9853C43.7879 41.808 48.1347 39.3883 52.6219 39.2149V38.059C48.3169 38.2106 43.7624 40.4721 36.382 38.9479L36.3948 37.0323C41.7963 39.2207 47.0174 36.5403 52.3285 36.2943C48.6659 24.0694 37.2584 25.731 33.6975 34.3805V34.3809H33.6973H31.9997V25.3421H33.6975V30.4308C34.3849 29.2941 35.2096 28.3453 36.2686 27.5204C38.1498 26.0547 40.345 25.3215 42.8536 25.3215C46.5347 25.3215 49.448 27.3141 51.6454 30.4213C53.0102 32.3509 53.9023 34.2907 54.302 36.5573C55.1397 36.6561 56.1447 36.9453 57.075 37.2968V38.8885C56.2044 38.4978 55.3587 38.2665 54.5178 38.1491V39.2918C55.345 39.3964 56.191 39.6029 57.075 39.9502V41.8342C55.9643 41.3614 55.0907 41.1202 54.4816 41.0724Z" fill="#1A2128"/>
<path fill-rule="evenodd" clip-rule="evenodd" d="M66.3022 35.9795L67.664 35.9887V37.4355H67.049L67.1219 43.379C67.1353 43.9608 66.795 44.9429 66.3022 45.7586V35.9795ZM65.3103 35.9729L66.1707 35.9787V45.9663C65.9101 46.3607 65.6142 46.7001 65.3103 46.9122V35.9729ZM64.3732 41.6671L64.3497 37.417L63.6715 37.4087V35.9619L65.1788 35.972V46.9958C65.0007 47.0974 64.8214 47.1523 64.6445 47.1457L61.0124 47.1579L61.0095 45.0081L62.0618 45.046L62.0907 45.7885L64.324 45.8112L64.3071 43.1503L63.3077 43.0523C61.6041 42.7217 61.0838 41.4847 60.8943 39.9936L60.8991 37.4355H60.3533V35.9887L62.4908 36.0155V37.4623H62.1048L62.0957 40.1405C62.1858 40.8574 62.5784 41.3656 63.2734 41.6652L64.3732 41.6671Z" fill="#1A2128"/>
<path fill-rule="evenodd" clip-rule="evenodd" d="M20.056 47.0354H17.6394L17.6389 45.8507H18.2275L18.2117 37.3849H17.623L17.6394 36.0438H20.056V47.0354ZM21.1048 41.6974C22.5221 41.9236 23.4549 41.0156 23.4586 39.6206C23.4631 37.9894 22.5014 37.3587 21.1048 37.5022V41.6974ZM21.0876 43.0215L21.0871 45.8507H21.6431L21.6436 47.0354H20.1875V36.0438H20.5132C22.4774 36.0438 24.5021 36.3644 24.5231 39.3266C24.5428 42.1172 23.3464 43.1018 21.0876 43.0215Z" fill="#1A2128"/>
<path fill-rule="evenodd" clip-rule="evenodd" d="M53.2992 68.4115L54.004 72.4649L54.9761 72.2123L55.1198 73.0382L52.5195 73.7137L52.3759 72.8881L53.3452 72.636L52.6404 68.5826L53.2992 68.4115ZM57.0207 67.1963L58.0768 72.0147L55.6778 72.8005L55.4991 71.985L57.2474 71.4123L57.0132 70.3444L55.3889 70.8763L55.2111 70.0654L56.8355 69.5333L56.548 68.2218L54.7412 68.8136L54.5631 68.0014L57.0207 67.1963ZM58.9465 66.2434L60.1613 70.1122L61.0891 69.6768L61.3366 70.465L58.8548 71.6296L58.6073 70.8414L59.5324 70.4072L58.3176 66.5384L58.9465 66.2434ZM62.7364 64.1291L64.4609 68.65L63.878 68.9823L62.7289 65.9697L62.652 69.6813L62.0389 70.0306L60.3145 65.5098L60.8972 65.1775L62.0219 68.1258L62.1208 64.4801L62.7364 64.1291ZM64.6212 64.9132L63.9345 65.09C63.7716 64.5531 63.7319 64.0986 63.8163 63.7243C63.901 63.3508 64.0889 63.0479 64.38 62.8169C64.7455 62.5266 65.1334 62.4638 65.5434 62.6275C66.0165 62.8167 66.4322 63.2496 66.7911 63.9245C67.17 64.6385 67.3353 65.3012 67.2857 65.914C67.2426 66.4451 67.029 66.8638 66.6429 67.1705C66.3288 67.4199 65.9959 67.4972 65.645 67.4034C65.3949 67.3358 65.1373 67.1473 64.8719 66.8358L65.3262 66.1914C65.4825 66.3898 65.6456 66.5068 65.8163 66.5428C65.9875 66.5788 66.1453 66.5393 66.2896 66.4249C66.4967 66.2604 66.6073 66.0161 66.6204 65.6913C66.6342 65.3676 66.506 64.9513 66.2358 64.4429C65.9561 63.9158 65.6931 63.5914 65.4475 63.4706C65.2016 63.3488 64.9768 63.3691 64.773 63.5311C64.623 63.65 64.5319 63.8237 64.4984 64.051C64.4649 64.2797 64.5055 64.5675 64.6212 64.9132ZM69.5855 63.6424L68.9051 62.4979L68.6033 62.7661C68.4003 62.9464 68.2727 63.0855 68.2204 63.1853C68.1687 63.2841 68.1463 63.4003 68.1544 63.5324C68.1616 63.6652 68.2043 63.7967 68.2832 63.9291C68.3624 64.0626 68.4538 64.1551 68.5557 64.204C68.6588 64.2528 68.7545 64.2614 68.8441 64.2306C68.9332 64.1988 69.0913 64.0815 69.3196 63.8788L69.5855 63.6424ZM68.138 59.8058L70.5365 63.8413L69.6576 64.6217C69.3303 64.9126 69.105 65.0827 68.9813 65.1336C68.784 65.2141 68.5725 65.1983 68.3474 65.0881C68.1215 64.9771 67.9135 64.7612 67.7223 64.44C67.5486 64.1478 67.4491 63.8632 67.4216 63.586C67.3941 63.3088 67.4252 63.0703 67.5131 62.8703C67.6 62.6711 67.8089 62.4237 68.1395 62.1301L68.4978 61.8119L67.5929 60.2899L68.138 59.8058ZM70.4564 57.194L73.1866 60.901L71.3409 62.9325L70.8792 62.305L72.224 60.8245L71.6189 60.0027L70.3691 61.3784L69.9095 60.7544L71.1592 59.3787L70.416 58.3698L69.0258 59.9L68.5656 59.275L70.4564 57.194ZM73.587 56.0921L72.7275 55.2714L72.3414 55.8755C72.1723 56.14 72.0758 56.32 72.0501 56.4163C72.0244 56.513 72.0292 56.6191 72.0629 56.734C72.0973 56.848 72.1648 56.9536 72.2676 57.0515C72.3731 57.1524 72.4765 57.2073 72.5793 57.2181C72.6824 57.2285 72.776 57.2012 72.8584 57.1356C72.9421 57.0694 73.073 56.8966 73.2505 56.6184L73.587 56.0921ZM74.8658 57.3135L74.1222 56.6035L73.8479 57.0328C73.6835 57.2901 73.5858 57.4527 73.5538 57.5213C73.4974 57.6456 73.4806 57.7681 73.5024 57.8905C73.5246 58.0122 73.5894 58.1241 73.6964 58.2264C73.7914 58.3172 73.8847 58.3661 73.9764 58.3713C74.0681 58.3765 74.1441 58.3503 74.2053 58.2923C74.2657 58.2336 74.4061 58.033 74.6255 57.6897L74.8658 57.3135ZM75.8158 57.1759L74.991 58.4663C74.7662 58.8179 74.5818 59.0408 74.4372 59.133C74.2938 59.2255 74.1234 59.2579 73.9271 59.2292C73.7322 59.2007 73.5494 59.1057 73.3817 58.9454C73.2266 58.7975 73.1136 58.6216 73.0422 58.4181C72.9711 58.2143 72.9478 58.0168 72.9732 57.8259C72.7957 57.9644 72.6053 58.0228 72.4015 58.002C72.198 57.9831 71.9996 57.8804 71.8062 57.6957C71.5728 57.4726 71.4189 57.2137 71.3454 56.9226C71.2716 56.6309 71.2761 56.373 71.3577 56.1489C71.4153 55.993 71.5952 55.6771 71.8989 55.2022L72.6002 54.1047L75.8158 57.1759ZM74.552 50.7061L77.8945 53.5672L77.5254 54.2114L75.2982 52.3047L76.7496 55.5661L76.3615 56.2435L73.0192 53.3824L73.388 52.7384L75.5677 54.6042L74.1623 51.3864L74.552 50.7061ZM75.8065 46.849L79.5898 48.7174L79.3376 49.481L77.8491 48.7457L77.3524 50.248L78.8409 50.9833L78.5878 51.7499L74.8042 49.8812L75.0576 49.1146L76.712 49.9316L77.2084 48.4294L75.5543 47.6123L75.8065 46.849ZM77.174 44.6524L80.2831 43.8591L80.1385 44.7678L77.9106 45.2048L79.8618 46.5076L79.7285 47.3467L76.8997 45.2699C76.5551 45.0154 76.3196 44.7915 76.1923 44.5989C76.0659 44.4081 76.0205 44.202 76.0551 43.9843C76.0883 43.7745 76.1349 43.5915 76.1938 43.4349L76.7924 43.5774C76.7637 43.709 76.7437 43.8096 76.7326 43.8793C76.7018 44.0741 76.7132 44.2201 76.7679 44.3147C76.8234 44.4105 76.9585 44.5232 77.174 44.6524ZM81.5861 38.6394L81.6458 39.0147C81.3879 39.0544 81.1767 39.0124 81.015 38.8887C80.8518 38.7644 80.7529 38.5854 80.7156 38.3516C80.6785 38.1169 80.7153 37.9058 80.8285 37.7158C80.9406 37.527 81.1232 37.3899 81.3742 37.3078L81.4337 37.6819C81.1764 37.7728 81.0703 37.9645 81.1166 38.2564C81.1629 38.5473 81.3198 38.6756 81.5861 38.6394ZM76.1842 37.7426L80.1896 36.7909L80.3121 37.5625L77.6432 38.1967L80.5703 39.1861L80.6994 39.9978L76.6941 40.9495L76.5712 40.1779L79.1834 39.5572L76.3136 38.5579L76.1842 37.7426ZM75.5011 33.7008L79.5064 32.7491L79.6293 33.5207L76.96 34.1549L79.8875 35.1443L80.0166 35.956L76.0109 36.9078L75.8881 36.1361L78.5005 35.5154L75.6308 34.5161L75.5011 33.7008ZM74.5532 30.4068L78.2513 28.2987L78.5361 29.045L76.9621 29.9422C77.0419 30.0992 77.1325 30.1884 77.2308 30.2094C77.33 30.2309 77.5431 30.2121 77.8685 30.1533C78.1945 30.0955 78.445 30.0861 78.6177 30.1248C78.7907 30.1635 78.9171 30.2387 78.9939 30.35C79.071 30.461 79.1744 30.6686 79.3047 30.9723L78.7504 31.2884L78.71 31.1832C78.6296 30.9717 78.5343 30.8515 78.4255 30.8214C78.3176 30.7918 78.1333 30.8033 77.8751 30.8544C77.616 30.906 77.4373 30.9245 77.3407 30.9104C77.2439 30.8977 77.1339 30.8488 77.012 30.7661C77.0189 30.9619 76.9806 31.1478 76.8949 31.3221C76.8109 31.497 76.6501 31.741 76.4128 32.0532L75.5943 33.1363L75.259 32.2571L76.0441 31.2651C76.2458 31.0131 76.3782 30.8185 76.4445 30.6819C76.51 30.5459 76.5133 30.3953 76.455 30.2313L74.838 31.153L74.5532 30.4068ZM75.2013 28.091L75.3576 28.9273C74.9213 29.1357 74.5505 29.192 74.2427 29.0956C73.9361 28.9986 73.6847 28.7741 73.4908 28.4225C73.2469 27.9806 73.189 27.5076 73.3154 27.0038C73.4621 26.4219 73.8088 25.9063 74.3547 25.4561C74.9321 24.9802 75.4709 24.7668 75.973 24.8167C76.4081 24.86 76.7544 25.1137 77.012 25.5807C77.2215 25.9601 77.2905 26.3654 77.22 26.7962C77.1692 27.103 77.0192 27.4213 76.7691 27.7509L76.2341 27.2071C76.3937 27.0125 76.4867 26.811 76.5133 26.6016C76.5396 26.3918 76.5046 26.1997 76.4084 26.0254C76.2703 25.7751 76.0686 25.6441 75.8026 25.6337C75.5375 25.6225 75.1993 25.7865 74.7884 26.1254C74.3619 26.4769 74.1013 26.8039 74.0069 27.1063C73.9116 27.409 73.9319 27.6833 74.0681 27.9297C74.168 28.1108 74.3114 28.2193 74.4982 28.2561C74.6855 28.2932 74.9204 28.2385 75.2013 28.091ZM70.7594 23.9894L73.8392 20.7167L75.4685 23.0079L74.9473 23.5619L73.7597 21.892L73.0772 22.6174L74.1805 24.169L73.662 24.7198L72.559 23.1683L71.7205 24.059L72.9478 25.7851L72.4287 26.3367L70.7594 23.9894ZM69.9833 18.8343L70.9402 17.4888L71.4485 18.029L70.7382 19.0281C70.5896 19.2369 70.4865 19.3997 70.4295 19.5174C70.3706 19.6351 70.3512 19.7652 70.3688 19.9071C70.387 20.0495 70.4683 20.1973 70.6124 20.3503C70.8281 20.5799 71.049 20.6945 71.2752 20.6947L72.4293 19.0716L72.9379 19.6118L70.2609 23.3764L69.7526 22.8362L70.8302 21.3206C70.5347 21.2422 70.286 21.0946 70.0843 20.8804C69.8049 20.5832 69.6555 20.2553 69.6366 19.8971C69.6178 19.5398 69.7335 19.1857 69.9833 18.8343ZM65.6435 18.8383L68.0994 14.8545L68.6128 15.3276L66.9767 17.9822L69.6934 16.3229L70.2337 16.8207L67.7779 20.8045L67.2644 20.3314L68.8656 17.7333L66.1862 19.3381L65.6435 18.8383ZM62.2734 16.3564L64.3749 12.0805L65.2407 12.7166L64.3272 16.0156L66.2765 13.4774L67.1446 14.1151L65.0429 18.3908L64.5063 17.9966L66.1605 14.6308L63.9362 17.5778L63.3778 17.1675L64.4669 13.3865L62.8124 16.7523L62.2734 16.3564ZM60.3167 12.608C60.1184 13.1281 60.0507 13.5637 60.1124 13.9153C60.1752 14.2677 60.325 14.512 60.5645 14.6487C60.8049 14.7857 61.053 14.7695 61.3098 14.6019C61.5665 14.4343 61.796 14.0833 62.0001 13.5485C62.1999 13.0241 62.271 12.5933 62.2129 12.2537C62.1552 11.9158 62.0015 11.6756 61.7526 11.5339C61.5038 11.392 61.2524 11.4024 61.0001 11.5663C60.7467 11.7308 60.5189 12.0776 60.3167 12.608ZM59.6746 12.2793C59.8803 11.7403 60.1139 11.334 60.3776 11.0604C60.6406 10.7859 60.9101 10.6231 61.1854 10.5724C61.4606 10.5214 61.748 10.5817 62.0475 10.7525C62.4816 10.9999 62.7575 11.4031 62.8767 11.9645C62.9951 12.5253 62.9119 13.1802 62.6265 13.9288C62.3382 14.6844 61.9678 15.1935 61.5163 15.454C61.1187 15.686 60.7028 15.6771 60.267 15.4286C59.8279 15.1783 59.5528 14.7946 59.4406 14.2781C59.3134 13.688 59.3916 13.0214 59.6746 12.2793ZM55.7569 13.2177L57.0855 8.50116L57.7223 8.7692L57.1997 10.625L58.4529 11.1525L58.9755 9.2967L59.6151 9.56598L58.2865 14.2825L57.647 14.0132L58.2279 11.9507L56.9748 11.4232L56.3939 13.4857L55.7569 13.2177ZM53.3094 9.83961C53.1878 10.3937 53.1832 10.8373 53.2939 11.1704C53.4056 11.5041 53.5881 11.7129 53.8433 11.7965C54.0994 11.8805 54.3415 11.8119 54.5707 11.5923C54.7997 11.3727 54.9757 10.9784 55.1008 10.4083C55.2232 9.84958 55.2319 9.41002 55.1264 9.08817C55.0215 8.76752 54.8359 8.56374 54.5707 8.47705C54.3056 8.39014 54.0596 8.45374 53.8344 8.66855C53.6082 8.88417 53.4332 9.27427 53.3094 9.83961ZM52.6304 9.65205C52.7562 9.07776 52.9287 8.62778 53.1495 8.30238C53.3694 7.97633 53.6118 7.75885 53.8756 7.65031C54.1394 7.54195 54.4311 7.54009 54.7502 7.64468C55.2128 7.79626 55.542 8.13477 55.7391 8.66252C55.9354 9.18962 55.9464 9.8521 55.7716 10.6499C55.595 11.4552 55.3027 12.0352 54.8951 12.3876C54.5362 12.7006 54.1255 12.78 53.6609 12.6278C53.193 12.4745 52.8676 12.1551 52.6838 11.6702C52.4746 11.1161 52.457 10.443 52.6304 9.65205ZM49.4577 11.4218L50.2362 6.52499L50.8975 6.68219L50.566 8.76606C50.7169 8.77958 50.8293 8.74217 50.9007 8.65752C50.9735 8.57185 51.0861 8.35021 51.2387 7.99379C51.3921 7.6372 51.533 7.38435 51.6602 7.23588C51.7874 7.08763 51.9114 7.00697 52.0303 6.99615C52.1492 6.98534 52.3472 7.00529 52.6247 7.05479L52.5081 7.78899L52.4149 7.76674C52.2274 7.72224 52.092 7.74573 52.008 7.83579C51.9252 7.925 51.8245 8.1138 51.7064 8.39927C51.5882 8.68602 51.4955 8.87357 51.4294 8.9607C51.3641 9.04908 51.2671 9.12912 51.1406 9.20083C51.2743 9.30959 51.3748 9.4566 51.4399 9.64354C51.5061 9.82964 51.5733 10.132 51.6403 10.5501L51.876 11.9963L51.097 11.8112L50.9021 10.4516C50.8538 10.1041 50.8026 9.85875 50.7514 9.71299C50.6999 9.56806 50.6022 9.47636 50.4593 9.43768L50.1188 11.5788L49.4577 11.4218ZM47.2634 9.1133L47.3117 8.27078L48.3581 8.3604C48.3485 7.94162 48.2778 7.61308 48.1467 7.37584C48.0155 7.13776 47.8389 7.00967 47.6192 6.99097C47.26 6.96017 47.0054 7.21553 46.8553 7.75801L46.2047 7.47773C46.3073 7.01259 46.4844 6.66553 46.7368 6.43457C46.989 6.20369 47.2918 6.10359 47.6452 6.13391C48.1155 6.17409 48.4775 6.43896 48.7312 6.93105C48.9848 7.42198 49.0889 8.06784 49.0434 8.86609C48.9991 9.63773 48.8265 10.2434 48.5251 10.6822C48.2237 11.1221 47.8447 11.3216 47.3872 11.2825C46.6269 11.2174 46.1882 10.6443 46.0739 9.5635L46.7669 9.30587C46.7803 9.65063 46.8488 9.91947 46.973 10.1128C47.0972 10.3062 47.2588 10.4123 47.4588 10.4293C47.9012 10.4672 48.1848 10.0581 48.3098 9.20273L47.2634 9.1133ZM41.4608 4.55021L41.7722 4.51697C41.7776 4.8348 41.7213 5.08688 41.6038 5.27064C41.4856 5.45586 41.3296 5.55779 41.1356 5.57824C40.9408 5.59943 40.7729 5.53221 40.63 5.37476C40.4882 5.21876 40.3958 4.9824 40.3554 4.66858L40.6658 4.63533C40.7127 4.95792 40.8578 5.10697 41.1 5.08103C41.3416 5.0551 41.4623 4.87791 41.4608 4.55021ZM40.1664 11.0242L39.8107 6.055L40.4515 5.98632L40.6884 9.29776L41.7993 5.84201L42.4731 5.77004L42.8288 10.7393L42.1881 10.8079L41.9561 7.56713L40.8432 10.9519L40.1664 11.0242ZM38.8892 11.0862L38.5335 6.11674L39.2045 6.04513L39.5602 11.0144L38.8892 11.0862ZM36.0899 9.21705L36.1836 10.5279L36.8934 10.452C37.0781 10.4322 37.2104 10.4031 37.2905 10.364C37.3708 10.3251 37.4375 10.2445 37.4919 10.1255C37.5453 10.0058 37.5673 9.87267 37.5569 9.72588C37.5252 9.28508 37.2823 9.08959 36.827 9.13825L36.0899 9.21705ZM35.5728 11.4409L35.2171 6.47147L35.8881 6.39987L36.0296 8.376L36.9835 8.27389C37.3385 8.23586 37.6297 8.34582 37.8578 8.60243C38.086 8.859 38.2165 9.21581 38.2492 9.67284C38.2758 10.0453 38.2158 10.3921 38.069 10.7144C37.9224 11.0369 37.6341 11.2205 37.2034 11.2664L35.5728 11.4409ZM32.1827 12.0957L31.4042 7.19909L32.0654 7.04189L32.3717 8.9686L33.6727 8.65938L33.3664 6.7329L34.0304 6.57508L34.8089 11.4717L34.1449 11.6295L33.8045 9.48842L32.5035 9.79742L32.8439 11.9387L32.1827 12.0957ZM28.9162 13.1056L27.7915 8.31049L28.4389 8.08363L28.8815 9.97021L30.1555 9.52357L29.7129 7.63701L30.3631 7.40912L31.4879 12.204L30.8377 12.4319L30.3458 10.3353L29.0718 10.782L29.5637 12.8786L28.9162 13.1056ZM26.0173 14.3251L24.5551 9.66827L26.8736 8.58018L27.1211 9.36845L25.4314 10.1613L25.7556 11.1937L27.3255 10.457L27.5716 11.2407L26.0017 11.9776L26.3997 13.2451L28.1462 12.4255L28.3926 13.2106L26.0173 14.3251ZM22.7897 13.593L23.216 14.8202L23.7931 14.5206C24.0458 14.3896 24.202 14.2896 24.2627 14.2203C24.3233 14.1509 24.3614 14.0554 24.3773 13.935C24.3923 13.8149 24.3751 13.6824 24.3243 13.536C24.2719 13.3851 24.2032 13.2759 24.1178 13.2054C24.0314 13.1351 23.939 13.1037 23.8407 13.112C23.7414 13.1206 23.5585 13.194 23.2927 13.332L22.7897 13.593ZM22.1556 11.7667L22.5244 12.8284L22.9345 12.6157C23.1804 12.4881 23.3304 12.4038 23.3856 12.3627C23.4844 12.2874 23.5475 12.1903 23.5771 12.0701C23.6057 11.9505 23.5935 11.8144 23.5405 11.6615C23.4934 11.5257 23.4315 11.4278 23.353 11.3688C23.2748 11.3099 23.1979 11.2879 23.1216 11.3022C23.0454 11.3178 22.8431 11.4101 22.5152 11.5802L22.1556 11.7667ZM21.2703 11.3243L22.5035 10.6844C22.8392 10.51 23.0891 10.4245 23.252 10.4295C23.4143 10.4337 23.5759 10.5063 23.7365 10.6476C23.8956 10.7882 24.0178 10.9797 24.1011 11.2192C24.1778 11.4405 24.2071 11.6613 24.1885 11.8815C24.17 12.1019 24.1122 12.2884 24.0142 12.4404C24.2244 12.4244 24.4141 12.4862 24.584 12.6253C24.7546 12.7625 24.8874 12.97 24.9832 13.2457C25.099 13.5795 25.131 13.8972 25.0796 14.1952C25.0286 14.494 24.9223 14.7171 24.7619 14.8645C24.6498 14.9668 24.3671 15.1363 23.9132 15.3718L22.8646 15.916L21.2703 11.3243ZM21.0519 17.1023L19.4085 13.4778L18.5392 14.0669L18.2044 13.3285L20.5294 11.753L20.8643 12.4914L19.9975 13.0786L21.6409 16.703L21.0519 17.1023ZM18.4079 16.8072L19.0891 16.6011C19.2672 17.1307 19.3197 17.5832 19.2463 17.961C19.1723 18.3378 18.993 18.6486 18.7088 18.8919C18.3517 19.1976 17.9656 19.277 17.5515 19.1308C17.073 18.962 16.6452 18.5472 16.2677 17.8878C15.8683 17.1904 15.6844 16.5352 15.7164 15.9208C15.7441 15.3881 15.9457 14.9606 16.3231 14.6374C16.6298 14.3748 16.9601 14.2835 17.3137 14.3621C17.5654 14.4189 17.8282 14.5965 18.1022 14.8965L17.6668 15.56C17.505 15.3683 17.3385 15.2581 17.1667 15.2296C16.9948 15.2009 16.8381 15.2471 16.6973 15.3677C16.495 15.5409 16.3915 15.7896 16.3876 16.1148C16.383 16.4391 16.523 16.8494 16.8075 17.3461C17.1023 17.861 17.3744 18.1737 17.6233 18.2841C17.8726 18.3954 18.0964 18.3654 18.2956 18.1949C18.4421 18.0698 18.5283 17.8922 18.5552 17.6637C18.5822 17.4335 18.5334 17.1478 18.4079 16.8072ZM13.5127 18.3914L14.2252 19.5064L14.5193 19.2255C14.7171 19.0364 14.8404 18.8919 14.8899 18.79C14.9387 18.6892 14.958 18.5721 14.946 18.4405C14.935 18.3081 14.8886 18.1785 14.8061 18.0494C14.7229 17.9194 14.629 17.8309 14.5257 17.7864C14.4213 17.7419 14.3256 17.7375 14.2368 17.7722C14.1489 17.8076 13.9941 17.9317 13.7717 18.144L13.5127 18.3914ZM15.0689 22.1639L12.5568 18.2332L13.4125 17.4158C13.7314 17.1112 13.9519 16.9315 14.0738 16.8754C14.2689 16.7866 14.4809 16.7935 14.7088 16.8939C14.9375 16.9952 15.1518 17.2021 15.3517 17.515C15.5337 17.7994 15.6416 18.0798 15.6768 18.3555C15.712 18.6314 15.688 18.8711 15.6058 19.0747C15.5247 19.2776 15.323 19.5336 15.001 19.8411L14.6521 20.1744L15.5997 21.657L15.0689 22.1639ZM12.7715 22.1808L11.3502 21.3293L12.1488 22.9971L12.7715 22.1808ZM14.8001 22.4147L14.2992 23.0713L13.4214 22.5598L12.5105 23.754L13.0007 24.7735L12.5109 25.4158L10.4151 20.8492L10.9028 20.2096L14.8001 22.4147ZM8.99344 24.1653L8.43604 25.1754C9.43396 25.9982 10.1305 26.707 10.522 27.3017L11.2333 26.0123L8.99344 24.1653ZM11.6101 25.3297L11.772 25.0361L13.0812 26.1155L12.7715 26.6769L12.035 26.0695L10.8534 28.211L11.5899 28.8184L11.2803 29.3796L9.97109 28.3002L10.1267 28.0181C9.95173 27.7126 9.71206 27.3903 9.41083 27.0537C9.10825 26.7174 8.62518 26.2741 7.96047 25.726L7.50838 25.3532L8.79988 23.0125L11.6101 25.3297ZM8.71447 29.9171L5.54709 29.632L5.89082 28.8071L8.1309 29.1375L6.54907 27.2279L6.86647 26.4663L9.11743 29.4158C9.39128 29.7765 9.56715 30.0712 9.64608 30.2991C9.72464 30.5251 9.72192 30.7386 9.63944 30.9364C9.56016 31.1266 9.47409 31.2869 9.38244 31.4175L8.839 31.079C8.89632 30.9622 8.93797 30.8721 8.96436 30.8089C9.038 30.6319 9.05978 30.4876 9.02864 30.3785C8.99699 30.2675 8.89258 30.1138 8.71447 29.9171ZM7.32791 32.5616L7.69055 31.8272C8.12292 32.0476 8.42176 32.322 8.58827 32.6526C8.75395 32.9832 8.80684 33.3579 8.74663 33.7755C8.67093 34.3003 8.44387 34.6902 8.06661 34.9449C7.63052 35.2391 7.08809 35.3154 6.4397 35.1757C5.75392 35.0278 5.24499 34.7236 4.91215 34.2614C4.62365 33.8607 4.51875 33.3841 4.59884 32.8294C4.66369 32.3788 4.84461 32.0286 5.14007 31.7785C5.35096 31.6011 5.63961 31.4995 6.00683 31.4747L6.0827 32.3202C5.85732 32.3245 5.67601 32.3906 5.53789 32.5189C5.39979 32.6472 5.31576 32.8153 5.28582 33.0223C5.24296 33.3197 5.31373 33.585 5.49895 33.8185C5.68333 34.0516 6.01977 34.2209 6.50825 34.3261C7.01443 34.4352 7.3878 34.4213 7.62762 34.2843C7.86813 34.1475 8.00912 33.9326 8.05149 33.6397C8.08242 33.4247 8.04077 33.2246 7.92765 33.0398C7.81371 32.8537 7.61366 32.694 7.32791 32.5616ZM5.90256 38.7398C6.36469 38.8394 6.72647 38.8066 6.98825 38.6427C7.25054 38.4774 7.4048 38.237 7.45073 37.9191C7.49664 37.5997 7.41978 37.3109 7.22075 37.051C7.02193 36.7913 6.68532 36.6112 6.20992 36.5087C5.74388 36.4083 5.38497 36.4358 5.13188 36.5923C4.87966 36.748 4.72973 36.9918 4.68222 37.3224C4.6344 37.6528 4.70762 37.9468 4.90261 38.2023C5.09806 38.4591 5.43108 38.6381 5.90256 38.7398ZM5.80885 39.583C5.32987 39.4799 4.94819 39.3091 4.66369 39.0686C4.3789 38.829 4.18047 38.5527 4.0693 38.241C3.95783 37.9293 3.93093 37.5742 3.98831 37.1764C4.07169 36.5996 4.31883 36.1694 4.73153 35.8835C5.14396 35.5984 5.68283 35.5271 6.34819 35.6705C7.0199 35.8153 7.51791 36.1209 7.84057 36.5865C8.12701 36.9963 8.22751 37.4895 8.14401 38.0684C8.0598 38.6519 7.82781 39.0758 7.44885 39.3422C7.01547 39.6452 6.46863 39.7252 5.80885 39.583ZM8.17904 43.1812L4.22021 44.2101L3.73041 41.3937L4.40609 41.2182L4.75573 43.2291L8.03906 42.3759L8.17904 43.1812ZM3.69186 47.9884L3.62701 47.6146C3.88402 47.5692 4.0956 47.6067 4.25936 47.7268C4.42402 47.8479 4.52563 48.0246 4.56627 48.2575C4.60691 48.4914 4.57284 48.7033 4.46257 48.8958C4.3532 49.0869 4.1727 49.2277 3.92257 49.3152L3.85772 48.9426C4.11412 48.8463 4.21722 48.6521 4.16672 48.3613C4.11651 48.0714 3.95753 47.9464 3.69186 47.9884ZM9.10586 48.7698L5.11455 49.807L4.98085 49.0379L7.64053 48.3469L4.69955 47.4201L4.5588 46.6113L8.55017 45.5741L8.68387 46.3433L6.081 47.0195L8.96451 47.9574L9.10586 48.7698ZM10.6651 52.4367L7.09625 54.8551L6.78447 54.1675L9.16267 52.5561L6.12861 52.7209L5.80069 51.9978L9.3695 49.5793L9.68128 50.267L7.35376 51.8441L10.3358 51.7104L10.6651 52.4367ZM12.3748 55.18L9.15926 58.2509L8.74459 57.6022L10.1131 56.2951C10.0065 56.1639 9.9017 56.1019 9.80222 56.1086C9.70133 56.1148 9.4974 56.1917 9.19091 56.3386C8.88388 56.4845 8.64185 56.5625 8.46616 56.5725C8.29063 56.5822 8.1537 56.5438 8.05828 56.4565C7.96268 56.3693 7.8239 56.1955 7.64089 55.9356L8.1231 55.475L8.18143 55.5665C8.29911 55.7505 8.41393 55.8414 8.52551 55.8408C8.63591 55.8399 8.8133 55.778 9.05551 55.6572C9.29858 55.5357 9.46916 55.4686 9.56596 55.4559C9.66272 55.4415 9.77873 55.4588 9.91276 55.506C9.87024 55.317 9.87331 55.1255 9.9245 54.9321C9.97435 54.7385 10.0859 54.4566 10.2597 54.0871L10.858 52.8066L11.3464 53.571L10.7641 54.7535C10.614 55.0546 10.521 55.2806 10.4814 55.432C10.4426 55.5825 10.4669 55.7301 10.554 55.8738L11.9601 54.531L12.3748 55.18ZM12.1154 57.6078L11.8424 56.8174C12.2425 56.5194 12.5998 56.3853 12.9166 56.4148C13.2326 56.4454 13.5117 56.6132 13.7527 56.9183C14.0555 57.3015 14.18 57.7552 14.1269 58.2781C14.0651 58.8822 13.7969 59.4638 13.3232 60.0229C12.8223 60.6142 12.3217 60.9386 11.8203 60.9962C11.3856 61.0461 11.0086 60.8696 10.6885 60.4643C10.4285 60.1352 10.303 59.7507 10.3111 59.3113C10.3177 58.9984 10.42 58.6532 10.6195 58.2756L11.2237 58.6975C11.0942 58.9229 11.0313 59.1412 11.035 59.3529C11.0386 59.5652 11.1005 59.747 11.2199 59.8984C11.3915 60.1154 11.6087 60.2015 11.8722 60.1554C12.1348 60.1102 12.4445 59.8769 12.8012 59.4556C13.171 59.0192 13.3812 58.6418 13.4316 58.3241C13.4824 58.0056 13.4231 57.74 13.2542 57.5261C13.13 57.369 12.9732 57.2925 12.7844 57.2959C12.5942 57.2992 12.3709 57.4029 12.1154 57.6078ZM15.6116 61.965L16.3127 60.9436L15.8322 60.4508C15.622 60.235 15.4781 60.1104 15.4002 60.0757C15.3221 60.0412 15.2352 60.0431 15.1401 60.0805C15.0457 60.1185 14.9571 60.1973 14.8734 60.3192C14.7872 60.4448 14.7389 60.5694 14.7263 60.6943C14.7142 60.8203 14.7333 60.9353 14.7839 61.0387C14.8353 61.1428 14.9719 61.3087 15.193 61.5356L15.6116 61.965ZM14.5685 63.4846L15.175 62.601L14.8336 62.2509C14.629 62.0411 14.4994 61.9157 14.4445 61.8745C14.3448 61.8011 14.2453 61.7764 14.1442 61.7988C14.0442 61.8217 13.9504 61.8968 13.8631 62.024C13.7855 62.1369 13.7423 62.249 13.7348 62.3611C13.7274 62.4731 13.7463 62.5667 13.7913 62.6435C13.8372 62.7193 13.9963 62.8978 14.2693 63.1778L14.5685 63.4846ZM14.6479 64.65L13.6217 63.5972C13.3423 63.3105 13.1664 63.0772 13.0962 62.8975C13.0254 62.7187 13.005 62.51 13.0351 62.2708C13.0654 62.0336 13.1494 61.8136 13.2862 61.6142C13.4127 61.4302 13.5602 61.2981 13.7292 61.2183C13.8981 61.1382 14.0606 61.1166 14.2157 61.1545C14.1087 60.9326 14.0675 60.6981 14.0917 60.4498C14.1143 60.2017 14.2053 59.9628 14.3628 59.7333C14.5533 59.4556 14.7703 59.2766 15.0109 59.1974C15.2519 59.1171 15.4626 59.1317 15.6431 59.2394C15.7684 59.3151 16.0205 59.5461 16.3981 59.9337L17.2708 60.8286L14.6479 64.65ZM18.7506 65.028C19.0061 64.5471 19.1228 64.1271 19.1015 63.7684C19.0796 63.4089 18.959 63.1413 18.7373 62.9653C18.515 62.7888 18.2674 62.7624 17.9939 62.8849C17.7207 63.0071 17.4535 63.3157 17.1905 63.8106C16.9329 64.2957 16.8135 64.7103 16.8323 65.0563C16.8511 65.401 16.9761 65.6647 17.2064 65.8475C17.4365 66.0302 17.6865 66.0627 17.9551 65.9433C18.2249 65.8238 18.4897 65.519 18.7506 65.028ZM19.3488 65.463C19.084 65.9616 18.8062 66.3245 18.514 66.5505C18.2225 66.7775 17.9367 66.893 17.6585 66.8963C17.3802 66.8998 17.1024 66.7913 16.8254 66.5713C16.4236 66.2523 16.1962 65.8061 16.1421 65.2299C16.0887 64.6544 16.2455 64.02 16.6136 63.3274C16.9851 62.6281 17.4098 62.1871 17.8864 62.0059C18.3069 61.8438 18.7176 61.9234 19.1209 62.2436C19.5272 62.5661 19.7558 62.9928 19.8082 63.5234C19.8671 64.1293 19.7136 64.7762 19.3488 65.463ZM22.2131 64.5094L20.6216 68.1684L21.4991 68.7388L21.1749 69.4842L18.8276 67.9584L19.1519 67.2132L20.0268 67.7819L21.6183 64.1229L22.2131 64.5094ZM23.4481 67.225L22.9275 66.6497C23.187 66.1731 23.4645 65.8666 23.7618 65.73C24.0586 65.5942 24.3697 65.6021 24.6935 65.7541C25.1006 65.9452 25.3702 66.292 25.5028 66.7934C25.6557 67.3727 25.6136 68.0383 25.3776 68.7897C25.1281 69.5844 24.7866 70.1371 24.352 70.4484C23.9753 70.7181 23.5726 70.753 23.1425 70.5511C22.793 70.3872 22.5461 70.1034 22.4017 69.7011C22.2995 69.4141 22.273 69.0484 22.3232 68.603L23.0166 68.6733C22.9772 68.9446 22.9955 69.1748 23.0723 69.3648C23.149 69.5553 23.2678 69.6882 23.4284 69.7634C23.6589 69.8718 23.8856 69.8375 24.1082 69.6597C24.3307 69.4829 24.5307 69.1116 24.7085 68.5454C24.8927 67.9588 24.9527 67.5082 24.8885 67.1942C24.8245 66.8792 24.6789 66.6692 24.4518 66.5626C24.2852 66.4844 24.1166 66.496 23.9465 66.5966C23.7754 66.6979 23.6089 66.9073 23.4481 67.225ZM28.2746 70.0598C28.4117 69.5112 28.429 69.0683 28.3278 68.7307C28.2258 68.3924 28.0494 68.1757 27.7968 68.0813C27.5432 67.9867 27.2991 68.0447 27.0639 68.2545C26.8288 68.4641 26.6416 68.8506 26.5004 69.415C26.3621 69.9683 26.3408 70.407 26.437 70.7332C26.5327 71.0582 26.7123 71.2697 26.9748 71.3679C27.2374 71.466 27.485 71.413 27.7162 71.2077C27.9485 71.0019 28.1346 70.6195 28.2746 70.0598ZM28.9476 70.2762C28.8054 70.8449 28.6204 71.2872 28.3903 71.603C28.1613 71.9195 27.9128 72.1266 27.6461 72.2237C27.3794 72.3208 27.0879 72.31 26.7719 72.1919C26.3138 72.0208 25.9946 71.6683 25.8127 71.1327C25.6316 70.5975 25.6392 69.9348 25.8369 69.1451C26.0362 68.3477 26.3451 67.7806 26.7625 67.4458C27.1299 67.1483 27.5427 67.0865 28.0026 67.2583C28.4659 67.4315 28.782 67.7646 28.9521 68.257C29.1451 68.8197 29.1436 69.4931 28.9476 70.2762ZM30.9703 72.6913L31.2503 71.3186L30.8882 71.2082C30.6446 71.1339 30.4755 71.104 30.3793 71.119C30.2842 71.1342 30.1971 71.1878 30.1194 71.2803C30.0408 71.3724 29.986 71.497 29.9536 71.6558C29.9209 71.8159 29.9217 71.9611 29.9566 72.0879C29.9923 72.2158 30.0483 72.3108 30.1253 72.3749C30.2024 72.4379 30.3776 72.5106 30.6514 72.594L30.9703 72.6913ZM32.444 68.8696L31.457 73.7096L30.4031 73.3883C30.0105 73.2688 29.759 73.1671 29.6475 73.0839C29.4702 72.9509 29.3443 72.7425 29.2686 72.461C29.1931 72.1781 29.1944 71.8446 29.273 71.4591C29.3446 71.1088 29.4588 70.8324 29.6147 70.6286C29.771 70.4249 29.9403 70.3005 30.1221 70.2542C30.3029 70.2074 30.5921 70.2442 30.9885 70.365L31.4182 70.496L31.7905 68.6703L32.444 68.8696Z" fill="#FFF100"/>
<path fill-rule="evenodd" clip-rule="evenodd" d="M38.429 74.4829V70.7138H39.2019C39.3093 70.7092 39.4168 70.7206 39.522 70.7478C39.62 70.7764 39.7097 70.8375 39.7815 70.9243C39.8607 71.0288 39.9192 71.1543 39.9526 71.2911C39.9974 71.4575 40.0198 71.6319 40.0189 71.8072C40.0265 72.0934 39.9671 72.3763 39.8477 72.6221C39.7057 72.8624 39.4693 72.9896 39.2295 72.9549H38.6774V74.4897L38.429 74.4829ZM38.7106 72.5067H39.2626C39.405 72.5242 39.5459 72.4589 39.6435 72.3301C39.7251 72.1801 39.764 72.0009 39.7539 71.8208C39.7574 71.6805 39.7348 71.5411 39.6876 71.4133C39.6534 71.3143 39.5904 71.2344 39.511 71.1892C39.425 71.1731 39.3375 71.1731 39.2515 71.1892H38.6995L38.7106 72.5067Z" fill="#FFE600"/>
<path fill-rule="evenodd" clip-rule="evenodd" d="M40.6924 70.7137H40.9463V73.7019L42.0504 70.7137H42.3264V74.4828H42.0725V71.5015L40.9684 74.4828H40.6869L40.6924 70.7137Z" fill="#FFE600"/>
<path fill-rule="evenodd" clip-rule="evenodd" d="M43.1102 74.4828V70.7137H43.3918V72.2621H44.4958V70.7137H44.7774V74.4828H44.4958V72.7036H43.3918V74.4828H43.1102Z" fill="#FFE600"/>
<path fill-rule="evenodd" clip-rule="evenodd" d="M45.3018 74.4828L46.1133 72.5338L45.3957 70.7137H45.7324L46.1188 71.6849C46.1961 71.8818 46.2513 72.038 46.2844 72.1399C46.3341 72.0041 46.3893 71.8615 46.4556 71.712L46.8751 70.7137H47.1787L46.45 72.5066L47.2394 74.4828H46.8972L46.3452 73.1246L46.2568 72.8937L46.163 73.1518L45.611 74.4625L45.3018 74.4828Z" fill="#FFE600"/>
<path fill-rule="evenodd" clip-rule="evenodd" d="M38.0978 69.9736C37.543 70.7109 37.2439 71.6856 37.2643 72.69C37.2514 73.693 37.5494 74.6643 38.0978 75.4065H37.6397C37.0697 74.678 36.758 73.701 36.773 72.69C36.7639 71.6804 37.0748 70.7061 37.6397 69.9736H38.0978Z" fill="#FFE600"/>
<path fill-rule="evenodd" clip-rule="evenodd" d="M48.0344 69.9736C48.5992 70.7061 48.9101 71.6804 48.901 72.69C48.9161 73.701 48.6043 74.678 48.0344 75.4065H47.5762C48.1246 74.6643 48.4226 73.693 48.4097 72.69C48.4301 71.6856 48.131 70.7109 47.5762 69.9736H48.0344Z" fill="#FFE600"/>
</svg>
