<svg width="58" height="58" viewBox="0 0 58 58" fill="none" xmlns="http://www.w3.org/2000/svg">
<path d="M57.983 0H0.0169922C0.00760766 0 0 0.00760766 0 0.0169922V57.983C0 57.9924 0.00760766 58 0.0169922 58H57.983C57.9924 58 58 57.9924 58 57.983V0.0169922C58 0.00760766 57.9924 0 57.983 0Z" fill="#5281B8"/>
<path d="M31.0391 41.1211C31.6055 41.0078 32.625 40.7812 32.625 39.4219C32.625 39.4219 32.5117 36.0234 34.0977 35.5703C35.6836 35.1172 37.7227 38.8554 39.875 40.3281C41.461 41.3476 42.7071 41.2344 42.7071 41.2344L48.4844 41.1211C48.4844 41.1211 51.4297 40.8945 50.0703 38.5156C49.9571 38.289 49.0508 36.8164 45.6524 33.7578C42.1407 30.3594 42.7071 30.9258 46.8985 25.1484C49.5039 21.6367 50.6367 19.4844 50.2969 18.6914C49.8438 17.8984 48.0313 18.0117 48.0313 18.0117H41.5742C40.8946 18.0117 40.5547 18.125 40.2149 18.6914C40.2149 18.6914 39.1953 21.5234 37.836 23.789C35.0039 28.6601 33.8711 28.8867 33.3047 28.5469C32.2852 27.9805 32.5117 25.8281 32.5117 24.3555C32.5117 19.2578 33.3047 17.4453 31.0391 16.9922C29.5664 16.7656 24.3555 16.539 22.7696 17.332C21.9766 17.7851 21.5235 18.5781 21.8633 18.6914C22.2032 18.6914 23.2227 18.8047 23.7891 19.4844C24.6953 20.957 24.8086 27.9805 23.5625 28.6601C21.8633 29.9062 17.5586 21.6367 16.5391 18.918C16.3125 18.2383 15.9727 18.125 15.1797 17.8984H8.94925C8.26956 17.8984 7.25003 18.0117 7.70315 19.3711C10.7617 25.7148 17.1055 41.2344 28.5469 41.1211H31.0391Z" fill="white"/>
</svg>
